20260505_Ex1/dump.vcd
$date
	Wed May  6 00:44:07 2026
$end
$version
	Icarus Verilog
$end
$timescale
	1ns
$end
$scope module fulladd_test $end
$var wire 1 ! SOut $end
$var wire 1 " CoOut $end
$var reg 1 # A $end
$var reg 1 $ B $end
$var reg 1 % Ci $end
$scope module uut $end
$var wire 1 # A $end
$var wire 1 & AB $end
$var wire 1 ' ACi $end
$var wire 1 $ B $end
$var wire 1 ( BCi $end
$var wire 1 % Ci $end
$var wire 1 " Co $end
$var wire 1 ! S $end
$var wire 1 ) xorAB $end
$upscope $end
$upscope $end
$enddefinitions $end
$comment Show the parameter values. $end
$dumpall
$end
#0
$dumpvars
0)
0(
0'
0&
0%
0$
0#
0"
0!
$end
#20
1!
1%
#40
1)
0%
1$
#60
1"
1(
0!
1%
#80
0"
1!
0(
0%
0$
1#
#100
1"
1'
0!
1%
#120
0'
1&
0)
0%
1$
#140
1'
1(
1!
1%
